{
   "name": "Sneakers Croco",
   "description": "'Sneakers Crazy Croco' is a quirky NFT featuring a crocodile wearing a sneaker-shaped hat, combining playful fashion with eccentric charm in a uniquely creative design.",
   "image": "https://bitbucket.org/AlexeyDanilov/static/raw/d50420805576dd24fe36f2e9ceb97663fe01df0c/anycraft/art/croco_3.png",
   "attributes": [{ "trait_type": "Rarity", "value": "Uncommon" }, { "trait_type": "Craft ID", "value": "420" }]
}